{
    "description": "Admittedly there isn’t a lot of “earth” in the Archipelago, so Earth Temtem are fairly unknown outside their habitat in the western Kisiwan deserts. They tend to be robust and heavy creatures, forged under an inclement sun – and fearless in battle.",
    "weaknessess": ["Water", "Nature", "Melee"],
    "resistances": ["Fire", "Electric", "Crystal", "Toxic"]
}